,model,intra-cluster implications,k
0,a2v SG,0.4402730375426621,2
1,a2v SG,0.06825938566552901,5
2,a2v SG,0.04436860068259386,10
3,a2v CBoW,0.658703071672355,2
4,a2v CBoW,0.13310580204778158,5
5,a2v CBoW,0.07508532423208192,10
6,a2v SG,0.2901023890784983,2
7,a2v SG,0.18088737201365188,5
8,a2v SG,0.04436860068259386,10
9,a2v CBoW,0.658703071672355,2
10,a2v CBoW,0.13310580204778158,5
11,a2v CBoW,0.06484641638225255,10
12,a2v SG,0.21843003412969283,2
13,a2v SG,0.09897610921501707,5
14,a2v SG,0.04778156996587031,10
15,a2v CBoW,0.658703071672355,2
16,a2v CBoW,0.15017064846416384,5
17,a2v CBoW,0.05460750853242321,10
18,a2v SG,0.5426621160409556,2
19,a2v SG,0.13993174061433447,5
20,a2v SG,0.040955631399317405,10
21,a2v CBoW,0.658703071672355,2
22,a2v CBoW,0.17064846416382254,5
23,a2v CBoW,0.07508532423208192,10
24,a2v SG,0.3003412969283277,2
25,a2v SG,0.10580204778156997,5
26,a2v SG,0.040955631399317405,10
27,a2v CBoW,0.658703071672355,2
28,a2v CBoW,0.17064846416382254,5
29,a2v CBoW,0.06825938566552901,10
30,a2v SG,0.3515358361774744,2
31,a2v SG,0.08532423208191127,5
32,a2v SG,0.03754266211604096,10
33,a2v CBoW,0.658703071672355,2
34,a2v CBoW,0.13310580204778158,5
35,a2v CBoW,0.05802047781569966,10
36,a2v SG,0.2593856655290102,2
37,a2v SG,0.09215017064846416,5
38,a2v SG,0.030716723549488054,10
39,a2v CBoW,0.658703071672355,2
40,a2v CBoW,0.13310580204778158,5
41,a2v CBoW,0.07508532423208192,10
42,a2v SG,0.5085324232081911,2
43,a2v SG,0.12286689419795221,5
44,a2v SG,0.034129692832764506,10
45,a2v CBoW,0.658703071672355,2
46,a2v CBoW,0.13310580204778158,5
47,a2v CBoW,0.05802047781569966,10
48,a2v SG,0.24232081911262798,2
49,a2v SG,0.07849829351535836,5
50,a2v SG,0.03754266211604096,10
51,a2v CBoW,0.658703071672355,2
52,a2v CBoW,0.13310580204778158,5
53,a2v CBoW,0.07849829351535836,10
54,a2v SG,0.26621160409556316,2
55,a2v SG,0.08191126279863481,5
56,a2v SG,0.040955631399317405,10
57,a2v CBoW,0.658703071672355,2
58,a2v CBoW,0.13310580204778158,5
59,a2v CBoW,0.04436860068259386,10
60,a2v SG,0.3412969283276451,2
61,a2v SG,0.12286689419795221,5
62,a2v SG,0.040955631399317405,10
63,a2v CBoW,0.658703071672355,2
64,a2v CBoW,0.13310580204778158,5
65,a2v CBoW,0.07508532423208192,10
66,a2v SG,0.24573378839590443,2
67,a2v SG,0.05460750853242321,5
68,a2v SG,0.034129692832764506,10
69,a2v CBoW,0.658703071672355,2
70,a2v CBoW,0.13310580204778158,5
71,a2v CBoW,0.04436860068259386,10
72,a2v SG,0.6962457337883959,2
73,a2v SG,0.10921501706484642,5
74,a2v SG,0.040955631399317405,10
75,a2v CBoW,0.658703071672355,2
76,a2v CBoW,0.13310580204778158,5
77,a2v CBoW,0.07849829351535836,10
78,a2v SG,0.23890784982935154,2
79,a2v SG,0.12627986348122866,5
80,a2v SG,0.04436860068259386,10
81,a2v CBoW,0.658703071672355,2
82,a2v CBoW,0.13310580204778158,5
83,a2v CBoW,0.06484641638225255,10
84,a2v SG,0.4539249146757679,2
85,a2v SG,0.11945392491467577,5
86,a2v SG,0.04778156996587031,10
87,a2v CBoW,0.658703071672355,2
88,a2v CBoW,0.10921501706484642,5
89,a2v CBoW,0.07167235494880546,10
90,a2v SG,0.3924914675767918,2
91,a2v SG,0.10921501706484642,5
92,a2v SG,0.04436860068259386,10
93,a2v CBoW,0.658703071672355,2
94,a2v CBoW,0.13310580204778158,5
95,a2v CBoW,0.04436860068259386,10
96,a2v SG,0.5017064846416383,2
97,a2v SG,0.08873720136518772,5
98,a2v SG,0.07849829351535836,10
99,a2v CBoW,0.658703071672355,2
100,a2v CBoW,0.13310580204778158,5
101,a2v CBoW,0.04436860068259386,10
102,a2v SG,0.2593856655290102,2
103,a2v SG,0.18088737201365188,5
104,a2v SG,0.04436860068259386,10
105,a2v CBoW,0.658703071672355,2
106,a2v CBoW,0.17406143344709898,5
107,a2v CBoW,0.04436860068259386,10
108,a2v SG,0.2593856655290102,2
109,a2v SG,0.09897610921501707,5
110,a2v SG,0.040955631399317405,10
111,a2v CBoW,0.658703071672355,2
112,a2v CBoW,0.13310580204778158,5
113,a2v CBoW,0.07508532423208192,10
114,a2v SG,0.28668941979522183,2
115,a2v SG,0.07167235494880546,5
116,a2v SG,0.030716723549488054,10
117,a2v CBoW,0.658703071672355,2
118,a2v CBoW,0.13310580204778158,5
119,a2v CBoW,0.07508532423208192,10
120,boa,0.6075085324232082,2
121,boa,0.09215017064846416,5
122,boa,0.040955631399317405,10
123,boa TSNE 3d,0.3003412969283277,2
124,boa TSNE 3d,0.28668941979522183,5
125,boa TSNE 3d,0.04436860068259386,10
126,boa PCA 3d,0.6075085324232082,2
127,boa PCA 3d,0.09215017064846416,5
128,boa PCA 3d,0.040955631399317405,10
